la0_waveform.vcd
$date today $end
$timescale 1 ns $end
$scope module top $end
$var wire 1 0 w_csi_rx_vsync0 $end
$var wire 1 1 w_csi_rx_hsync0 $end
$var wire 1 2 w_csi_rx_dvalid $end
$var wire 11 3 cnt_pixel $end
$var wire 11 4 cnt_row $end
$upscope $end
$enddefinitions $end
#0
$dumpvars
x0
x1
x2
bx 3
bx 4
$end
#0 $dumpon
10
11
02
b00000111111 3
b11100101001 4
#4
12
#5
b00001000000 3
#6
02
b00001000001 3
#11
12
#12
02
b00001000010 3
#18
12
#19
b00001000011 3
#20
02
b00001000100 3
#25
12
#26
02
b00001000101 3
#31
12
#32
b00001000110 3
#33
02
b00001000111 3
#38
12
#39
b00001001000 3
#40
02
b00001001001 3
#45
12
#46
02
b00001001010 3
#52
12
#53
b00001001011 3
#54
02
b00001001100 3
#59
12
#60
02
b00001001101 3
#65
12
#66
b00001001110 3
#67
02
b00001001111 3
#72
12
#73
b00001010000 3
#74
02
b00001010001 3
#79
12
#80
02
b00001010010 3
#86
12
#87
b00001010011 3
#88
02
b00001010100 3
#93
12
#94
02
b00001010101 3
#100
12
#101
b00001010110 3
#102
02
b00001010111 3
#106
12
#107
b00001011000 3
#108
02
b00001011001 3
#113
12
#114
02
b00001011010 3
#120
12
#121
b00001011011 3
#122
02
b00001011100 3
#127
12
#128
02
b00001011101 3
#134
12
#135
b00001011110 3
#136
02
b00001011111 3
#141
12
#142
b00001100000 3
#143
02
b00001100001 3
#147
12
#148
02
b00001100010 3
#154
12
#155
b00001100011 3
#156
02
b00001100100 3
#161
12
#162
02
b00001100101 3
#168
12
#169
b00001100110 3
#170
02
b00001100111 3
#175
12
#176
b00001101000 3
#177
02
b00001101001 3
#182
12
#183
02
b00001101010 3
#188
12
#189
b00001101011 3
#190
02
b00001101100 3
#195
12
#196
02
b00001101101 3
#202
12
#203
b00001101110 3
#204
02
b00001101111 3
#209
12
#210
b00001110000 3
#211
02
b00001110001 3
#216
12
#217
02
b00001110010 3
#223
12
#224
b00001110011 3
#225
02
b00001110100 3
#229
12
#230
02
b00001110101 3
#236
12
#237
b00001110110 3
#238
02
b00001110111 3
#243
12
#244
b00001111000 3
#245
02
b00001111001 3
#250
12
#251
02
b00001111010 3
#257
12
#258
b00001111011 3
#259
02
b00001111100 3
#263
12
#264
02
b00001111101 3
#270
12
#271
b00001111110 3
#272
02
b00001111111 3
#277
12
#278
b00010000000 3
#279
02
b00010000001 3
#284
12
#285
02
b00010000010 3
#291
12
#292
b00010000011 3
#293
02
b00010000100 3
#298
12
#299
02
b00010000101 3
#304
12
#305
b00010000110 3
#306
02
b00010000111 3
#311
12
#312
b00010001000 3
#313
02
b00010001001 3
#318
12
#319
02
b00010001010 3
#325
12
#326
b00010001011 3
#327
02
b00010001100 3
#332
12
#333
02
b00010001101 3
#339
12
#340
b00010001110 3
#341
02
b00010001111 3
#643
12
#644
b00010010000 3
#645
02
b00010010001 3
#650
12
#651
02
b00010010010 3
#657
12
#658
b00010010011 3
#659
02
b00010010100 3
#664
12
#665
02
b00010010101 3
#670
12
#671
b00010010110 3
#672
02
b00010010111 3
#677
12
#678
b00010011000 3
#679
02
b00010011001 3
#684
12
#685
02
b00010011010 3
#691
12
#692
b00010011011 3
#693
02
b00010011100 3
#698
12
#699
02
b00010011101 3
#705
12
#706
b00010011110 3
#707
02
b00010011111 3
#711
12
#712
b00010100000 3
#713
02
b00010100001 3
#718
12
#719
02
b00010100010 3
#725
12
#726
b00010100011 3
#727
02
b00010100100 3
#732
12
#733
02
b00010100101 3
#739
12
#740
b00010100110 3
#741
02
b00010100111 3
#746
12
#747
b00010101000 3
#748
02
b00010101001 3
#752
12
#753
02
b00010101010 3
#759
12
#760
b00010101011 3
#761
02
b00010101100 3
#766
12
#767
02
b00010101101 3
#773
12
#774
b00010101110 3
#775
02
b00010101111 3
#780
12
#781
b00010110000 3
#782
02
b00010110001 3
#787
12
#788
02
b00010110010 3
#793
12
#794
b00010110011 3
#795
02
b00010110100 3
#800
12
#801
02
b00010110101 3
#807
12
#808
b00010110110 3
#809
02
b00010110111 3
#814
12
#815
b00010111000 3
#816
02
b00010111001 3
#821
12
#822
02
b00010111010 3
#828
12
#829
b00010111011 3
#830
02
b00010111100 3
#834
12
#835
02
b00010111101 3
#841
12
#842
b00010111110 3
#843
02
b00010111111 3
#848
12
#849
b00011000000 3
#850
02
b00011000001 3
#855
12
#856
02
b00011000010 3
#862
12
#863
b00011000011 3
#864
02
b00011000100 3
#868
12
#869
02
b00011000101 3
#875
12
#876
b00011000110 3
#877
02
b00011000111 3
#882
12
#883
b00011001000 3
#884
02
b00011001001 3
#889
12
#890
02
b00011001010 3
#896
12
#897
b00011001011 3
#898
02
b00011001100 3
#903
12
#904
02
b00011001101 3
#909
12
#910
b00011001110 3
#911
02
b00011001111 3
#916
12
#917
b00011010000 3
#918
02
b00011010001 3
#923
12
#924
02
b00011010010 3
#930
12
#931
b00011010011 3
#932
02
b00011010100 3
#937
12
#938
02
b00011010101 3
#944
12
#945
b00011010110 3
#946
02
b00011010111 3
#950
12
#951
b00011011000 3
#952
02
b00011011001 3
#957
12
#958
02
b00011011010 3
#964
12
#965
b00011011011 3
#966
02
b00011011100 3
#971
12
#972
02
b00011011101 3
#978
12
#979
b00011011110 3
#980
02
b00011011111 3
#985
12
#986
b00011100000 3
#987
02
b00011100001 3
#991
12
#992
02
b00011100010 3
#998
12
#999
b00011100011 3
#1000
02
b00011100100 3
#1005
12
#1006
02
b00011100101 3
#1012
12
#1013
b00011100110 3
#1014
02
b00011100111 3
#1019
12
#1020
b00011101000 3
#1021
02
b00011101001 3
#1025
12
#1026
02
b00011101010 3
#1032
12
#1033
b00011101011 3
#1034
02
b00011101100 3
#1039
12
#1040
02
b00011101101 3
#1046
12
#1047
b00011101110 3
#1048
02
b00011101111 3
#1053
12
#1054
b00011110000 3
#1055
02
b00011110001 3
#1060
12
#1061
02
b00011110010 3
#1066
12
#1067
b00011110011 3
#1068
02
b00011110100 3
#1073
12
#1074
02
b00011110101 3
#1080
12
#1081
b00011110110 3
#1082
02
b00011110111 3
#1087
12
#1088
b00011111000 3
#1089
02
b00011111001 3
#1094
12
#1095
02
b00011111010 3
#1101
12
#1102
b00011111011 3
#1103
02
b00011111100 3
#1107
12
#1108
02
b00011111101 3
#1114
12
#1115
b00011111110 3
#1116
02
b00011111111 3
#1121
12
#1122
b00100000000 3
#1123
02
b00100000001 3
#1128
12
#1129
02
b00100000010 3
#1135
12
#1136
b00100000011 3
#1137
02
b00100000100 3
#1142
12
#1143
02
b00100000101 3
#1148
12
#1149
b00100000110 3
#1150
02
b00100000111 3
#1155
12
#1156
b00100001000 3
#1157
02
b00100001001 3
#1162
12
#1163
02
b00100001010 3
#1169
12
#1170
b00100001011 3
#1171
02
b00100001100 3
#1176
12
#1177
02
b00100001101 3
#1183
12
#1184
b00100001110 3
#1185
02
b00100001111 3
#1189
12
#1190
b00100010000 3
#1191
02
b00100010001 3
#1196
12
#1197
02
b00100010010 3
#1203
12
#1204
b00100010011 3
#1205
02
b00100010100 3
#1210
12
#1211
02
b00100010101 3
#1217
12
#1218
b00100010110 3
#1219
02
b00100010111 3
#1223
12
#1224
b00100011000 3
#1225
02
b00100011001 3
#1230
12
#1231
02
b00100011010 3
#1237
12
#1238
b00100011011 3
#1239
02
b00100011100 3
#1244
12
#1245
02
b00100011101 3
#1251
12
#1252
b00100011110 3
#1253
02
b00100011111 3
#1258
12
#1259
b00100100000 3
#1260
02
b00100100001 3
#1264
12
#1265
02
b00100100010 3
#1271
12
#1272
b00100100011 3
#1273
02
b00100100100 3
#1278
12
#1279
02
b00100100101 3
#1285
12
#1286
b00100100110 3
#1287
02
b00100100111 3
#1292
12
#1293
b00100101000 3
#1294
02
b00100101001 3
#1299
12
#1300
02
b00100101010 3
#1305
12
#1306
b00100101011 3
#1307
02
b00100101100 3
#1312
12
#1313
02
b00100101101 3
#1319
12
#1320
b00100101110 3
#1321
02
b00100101111 3
#1326
12
#1327
b00100110000 3
#1328
b00100110001 3
#1329
02
b00100110010 3
#1333
12
#1334
b00100110011 3
#1335
02
b00100110100 3
#1340
01
#1341
b00000000000 3
#1352
11
12
#1353
b00000000001 3
b11100101010 4
#1354
02
b00000000010 3
#1360
12
#1361
b00000000011 3
#1362
02
b00000000100 3
#1367
12
#1368
02
b00000000101 3
#1374
12
#1375
b00000000110 3
#1376
02
b00000000111 3
#1380
12
#1381
b00000001000 3
#1382
02
b00000001001 3
#1387
12
#1388
02
b00000001010 3
#1394
12
#1395
b00000001011 3
#1396
02
b00000001100 3
#1401
12
#1402
02
b00000001101 3
#1408
12
#1409
b00000001110 3
#1410
02
b00000001111 3
#1415
12
#1416
b00000010000 3
#1417
02
b00000010001 3
#1421
12
#1422
02
b00000010010 3
#1428
12
#1429
b00000010011 3
#1430
02
b00000010100 3
#1435
12
#1436
02
b00000010101 3
#1442
12
#1443
b00000010110 3
#1444
02
b00000010111 3
#1449
12
#1450
b00000011000 3
#1451
02
b00000011001 3
#1456
12
#1457
02
b00000011010 3
#1462
12
#1463
b00000011011 3
#1464
02
b00000011100 3
#1469
12
#1470
02
b00000011101 3
#1476
12
#1477
b00000011110 3
#1478
02
b00000011111 3
#1483
12
#1484
b00000100000 3
#1485
02
b00000100001 3
#1490
12
#1491
02
b00000100010 3
#1497
12
#1498
b00000100011 3
#1499
02
b00000100100 3
#1503
12
#1504
02
b00000100101 3
#1510
12
#1511
b00000100110 3
#1512
02
b00000100111 3
#1517
12
#1518
b00000101000 3
#1519
02
b00000101001 3
#1524
12
#1525
02
b00000101010 3
#1531
12
#1532
b00000101011 3
#1533
02
b00000101100 3
#1537
12
#1538
02
b00000101101 3
#1544
12
#1545
b00000101110 3
#1546
02
b00000101111 3
#1551
12
#1552
b00000110000 3
#1553
02
b00000110001 3
#1558
12
#1559
02
b00000110010 3
#1565
12
#1566
b00000110011 3
#1567
02
b00000110100 3
#1572
12
#1573
02
b00000110101 3
#1578
12
#1579
b00000110110 3
#1580
02
b00000110111 3
#1585
12
#1586
b00000111000 3
#1587
02
b00000111001 3
#1592
12
#1593
02
b00000111010 3
#1599
12
#1600
b00000111011 3
#1601
02
b00000111100 3
#1606
12
#1607
02
b00000111101 3
#1613
12
#1614
b00000111110 3
#1615
02
b00000111111 3
#1619
12
#1620
b00001000000 3
#1621
02
b00001000001 3
#1626
12
#1627
02
b00001000010 3
#1633
12
#1634
b00001000011 3
#1635
02
b00001000100 3
#1640
12
#1641
02
b00001000101 3
#1647
12
#1648
b00001000110 3
#1649
02
b00001000111 3
#1654
12
#1655
b00001001000 3
#1656
02
b00001001001 3
#1660
12
#1661
02
b00001001010 3
#1667
12
#1668
b00001001011 3
#1669
02
b00001001100 3
#1674
12
#1675
02
b00001001101 3
#1681
12
#1682
b00001001110 3
#1683
02
b00001001111 3
#1688
12
#1689
b00001010000 3
#1690
02
b00001010001 3
#1695
12
#1696
02
b00001010010 3
#1701
12
#1702
b00001010011 3
#1703
02
b00001010100 3
#1708
12
#1709
02
b00001010101 3
#1715
12
#1716
b00001010110 3
#1717
02
b00001010111 3
#1722
12
#1723
b00001011000 3
#1724
02
b00001011001 3
#1729
12
#1730
02
b00001011010 3
#1735
12
#1736
b00001011011 3
#1737
02
b00001011100 3
#1742
12
#1743
02
b00001011101 3
#1749
12
#1750
b00001011110 3
#1751
02
b00001011111 3
#1756
12
#1757
b00001100000 3
#1758
02
b00001100001 3
#1763
12
#1764
02
b00001100010 3
#1770
12
#1771
b00001100011 3
#1772
02
b00001100100 3
#1776
12
#1777
02
b00001100101 3
#1783
12
#1784
b00001100110 3
#1785
02
b00001100111 3
#1790
12
#1791
b00001101000 3
#1792
02
b00001101001 3
#1797
12
#1798
02
b00001101010 3
#1804
12
#1805
b00001101011 3
#1806
02
b00001101100 3
#1811
12
#1812
02
b00001101101 3
#1817
12
#1818
b00001101110 3
#1819
02
b00001101111 3
#1824
12
#1825
b00001110000 3
#1826
02
b00001110001 3
#1831
12
#1832
02
b00001110010 3
#1838
12
#1839
b00001110011 3
#1840
02
b00001110100 3
#1845
12
#1846
02
b00001110101 3
#1852
12
#1853
b00001110110 3
#1854
02
b00001110111 3
#1858
12
#1859
b00001111000 3
#1860
02
b00001111001 3
#1865
12
#1866
02
b00001111010 3
#1872
12
#1873
b00001111011 3
#1874
02
b00001111100 3
#1879
12
#1880
02
b00001111101 3
#1886
12
#1887
b00001111110 3
#1888
02
b00001111111 3
#1892
12
#1893
b00010000000 3
#1894
02
b00010000001 3
#1899
12
#1900
02
b00010000010 3
#1906
12
#1907
b00010000011 3
#1908
02
b00010000100 3
#1913
12
#1914
02
b00010000101 3
#1920
12
#1921
b00010000110 3
#1922
02
b00010000111 3
#1927
12
#1928
b00010001000 3
#1929
02
b00010001001 3
#1933
12
#1934
02
b00010001010 3
#1940
12
#1941
b00010001011 3
#1942
02
b00010001100 3
#1947
12
#1948
02
b00010001101 3
#2048
00
#2049
b00000000000 3
b00000000000 4
#2065
01
#4095
00
01
02
b00000000000 3
b00000000000 4
